Text Mining avec R
…
dop_speech <- read_lines(
  file = "../../data/dop_02_oct_thomas_sankara.txt"
) %>%
  tibble(line = 1:179, text = .)

Tokénisation du texte

Nous avons à présent pour, 179 lignes de textes. Pour le moment il est difficile de travailler ce texte. Il va falloir décomposer les lignes de textes en “tokens”. Un token est une unité de texte significative, le plus souvent un mot, que nous souhaitons utiliser pour une analyse plus approfondie, et la “tokenisation” est le processus de division du texte en “tokens”.

Pour ce faire, nous utiliserons la fonction unnest_tokens() du package tidytext.

dop_speech %>%
  unnest_tokens(word, text)

# A tibble: 10,222 × 2
    line word      
   <int> <chr>     
 1     1 peuple    
 2     1 de        
 3     1 haute     
 4     1 volta     
 5     2 camarades 
 6     2 militantes
 7     2 et        
 8     2 militants 
 9     2 de        
10     2 la        
# … with 10,212 more rows
…
dop_speech_clean <- dop_speech_clean %>%
  filter(!(word %in% num_val), word != word[84])

Analyse et visualisation du texte

Dans cette question il sera question d’analyser le texte à proprement parler. Quels sont les mots utilisés de façon fréquence, leur polarité (positif ou négatif) ainsi que le sentiment générale dégagé par le texte (joie, tristesse etc..). Il est important de garder à l’esprit que nous sommes en introduction et qu’il est plus approprier pour un linguiste, un communicateur de tirer de meilleures informations. A la base je ne possède pas ses compétences.

Fréquence des mots

Comme dit plus haut, une des méthodes d’analyses du texte consiste à élaboré une table de fréquence de ceux. concrètement il s’agira pour chaque mot de compter combien de fois il a été utilisé dans le texte. Le package dplyr offre d’importantes facilités pour y arriver.

dop_speech_clean %>%
  count(word, sort = TRUE, name = "freq")

# A tibble: 2,263 × 2
   word             freq
   <chr>           <int>
 1 à                 221
 2 révolution        101
 3 peuple             90
 4 pays               52
 5 c'est              45
 6 révolutionnaire    41
 7 voltaïque          41
 8 société            39
 9 masses             37
10 populaire          30
# … with 2,253 more rows
…
